<?xml version="1.0" encoding="utf-8"?>
<!-- Generator: Adobe Illustrator 25.4.1, SVG Export Plug-In . SVG Version: 6.00 Build 0)  -->
<svg version="1.1" id="Ebene_1" xmlns="http://www.w3.org/2000/svg" xmlns:xlink="http://www.w3.org/1999/xlink" x="0px" y="0px"
	 viewBox="0 0 500 500" style="enable-background:new 0 0 500 500;" xml:space="preserve">
<style type="text/css">
	.st0{clip-path:url(#SVGID_00000170267149673442788670000013546374699812355744_);fill:#FFFFFF;}
</style>
<g>
	<defs>
		<rect id="SVGID_1_" x="73" y="2.3" width="353.9" height="495.5"/>
	</defs>
	<clipPath id="SVGID_00000004508433385282669950000018341153651125938582_">
		<use xlink:href="#SVGID_1_"  style="overflow:visible;"/>
	</clipPath>
	<path style="clip-path:url(#SVGID_00000004508433385282669950000018341153651125938582_);fill:#FFFFFF;" d="M324.4,196.9H175.6v-80
		c1.2-41.2,35.4-73.6,76.5-72.4c39.4,1.1,71.2,32.9,72.3,72.4V196.9z M282,364.1v85.2h-63.9v-85.2c-8.2-5.1-15.2-12.1-20.5-20.4
		c-17.8-29-8.7-66.9,20.3-84.6c29-17.8,66.8-8.7,84.4,20.4C320.2,308.5,311.1,346.4,282,364.1 M376.1,196.9v-70.7
		C374.8,56.4,317.3,0.9,247.7,2.3c-67.7,1.3-122.3,56-123.6,123.9v70.7h-51v300.8H427V196.9H376.1z"/>
</g>
</svg>
